ST558 Project 1
…
Rows: 3198 Columns: 42
── Column specification ────────────────────────────────────────────────────────
Delimiter: ","
chr (22): Area_name, STCOU, EDU010197N1, EDU010197N2, EDU010198N1, EDU010198...
dbl (20): EDU010197F, EDU010197D, EDU010198F, EDU010198D, EDU010199F, EDU010...

ℹ Use `spec()` to retrieve the full column specification for this data.
ℹ Specify the column types or set `show_col_types = FALSE` to quiet this message.

census_df_list_EDU01a

$county_data
# A tibble: 31,450 × 7
   area_name   STCOU item_id    enrollment  year survey_code state
   <chr>       <chr> <chr>           <dbl> <dbl> <chr>       <chr>
 1 Autauga, AL 01001 EDU010187D       6829  1987 EDU0101     AL   
 2 Autauga, AL 01001 EDU010188D       6900  1988 EDU0101     AL   
 3 Autauga, AL 01001 EDU010189D       6920  1989 EDU0101     AL   
 4 Autauga, AL 01001 EDU010190D       6847  1990 EDU0101     AL   
 5 Autauga, AL 01001 EDU010191D       7008  1991 EDU0101     AL   
 6 Autauga, AL 01001 EDU010192D       7137  1992 EDU0101     AL   
 7 Autauga, AL 01001 EDU010193D       7152  1993 EDU0101     AL   
 8 Autauga, AL 01001 EDU010194D       7381  1994 EDU0101     AL   
 9 Autauga, AL 01001 EDU010195D       7568  1995 EDU0101     AL   
10 Autauga, AL 01001 EDU010196D       7834  1996 EDU0101     AL   
# ℹ 31,440 more rows

$noncounty_data
# A tibble: 520 × 7
   area_name     STCOU item_id    enrollment  year survey_code division
   <chr>         <chr> <chr>           <dbl> <dbl> <chr>       <chr>   
 1 UNITED STATES 00000 EDU010187D   40024299  1987 EDU0101     ERROR   
 2 UNITED STATES 00000 EDU010188D   39967624  1988 EDU0101     ERROR   
 3 UNITED STATES 00000 EDU010189D   40317775  1989 EDU0101     ERROR   
 4 UNITED STATES 00000 EDU010190D   40737600  1990 EDU0101     ERROR   
 5 UNITED STATES 00000 EDU010191D   41385442  1991 EDU0101     ERROR   
 6 UNITED STATES 00000 EDU010192D   42088151  1992 EDU0101     ERROR   
 7 UNITED STATES 00000 EDU010193D   42724710  1993 EDU0101     ERROR   
 8 UNITED STATES 00000 EDU010194D   43369917  1994 EDU0101     ERROR   
 9 UNITED STATES 00000 EDU010195D   43993459  1995 EDU0101     ERROR   
10 UNITED STATES 00000 EDU010196D   44715737  1996 EDU0101     ERROR   
# ℹ 510 more rows

census_df_list_EDU01b

$county_data
# A tibble: 31,450 × 7
   area_name   STCOU item_id    enrollment  year survey_code state
   <chr>       <chr> <chr>           <dbl> <dbl> <chr>       <chr>
 1 Autauga, AL 01001 EDU010197D       8099  1997 EDU0101     AL   
 2 Autauga, AL 01001 EDU010198D       8211  1998 EDU0101     AL   
 3 Autauga, AL 01001 EDU010199D       8489  1999 EDU0101     AL   
 4 Autauga, AL 01001 EDU010200D       8912  2000 EDU0102     AL   
 5 Autauga, AL 01001 EDU010201D       8626  2001 EDU0102     AL   
 6 Autauga, AL 01001 EDU010202D       8762  2002 EDU0102     AL   
 7 Autauga, AL 01001 EDU015203D       9105  2003 EDU0152     AL   
 8 Autauga, AL 01001 EDU015204D       9200  2004 EDU0152     AL   
 9 Autauga, AL 01001 EDU015205D       9559  2005 EDU0152     AL   
10 Autauga, AL 01001 EDU015206D       9652  2006 EDU0152     AL   
# ℹ 31,440 more rows

$noncounty_data
# A tibble: 520 × 7
   area_name     STCOU item_id    enrollment  year survey_code division
   <chr>         <chr> <chr>           <dbl> <dbl> <chr>       <chr>   
 1 UNITED STATES 00000 EDU010197D   44534459  1997 EDU0101     ERROR   
 2 UNITED STATES 00000 EDU010198D   46245814  1998 EDU0101     ERROR   
 3 UNITED STATES 00000 EDU010199D   46368903  1999 EDU0101     ERROR   
 4 UNITED STATES 00000 EDU010200D   46818690  2000 EDU0102     ERROR   
 5 UNITED STATES 00000 EDU010201D   47127066  2001 EDU0102     ERROR   
 6 UNITED STATES 00000 EDU010202D   47606570  2002 EDU0102     ERROR   
 7 UNITED STATES 00000 EDU015203D   48506317  2003 EDU0152     ERROR   
 8 UNITED STATES 00000 EDU015204D   48693287  2004 EDU0152     ERROR   
 9 UNITED STATES 00000 EDU015205D   48978555  2005 EDU0152     ERROR   
10 UNITED STATES 00000 EDU015206D   49140702  2006 EDU0152     ERROR   
# ℹ 510 more rows
…
In this final step for preparing the data, we create a function that takes in the results of two calls of the wrapper function and combines them. Specifically, we use the bind_rows function to append the rows of two like tibbles together, resulting in two new comprehensive tibbles (one for county and one for state data). These are output into a single list object.

combine_census_lists <- function(list1, list2) {
  county_bind_result <- bind_rows(list1$county_data, list2$county_data) 
  noncounty_bind_result <- bind_rows(list1$noncounty_data, list2$noncounty_data) 
  return(list("county_data" = county_bind_result,
              "noncounty_data" = noncounty_bind_result))
}

combined_census_lists_EDU <- combine_census_lists(census_df_list_EDU01a, census_df_list_EDU01b)
combined_census_lists_EDU

$county_data
# A tibble: 62,900 × 7
   area_name   STCOU item_id    enrollment  year survey_code state
   <chr>       <chr> <chr>           <dbl> <dbl> <chr>       <chr>
 1 Autauga, AL 01001 EDU010187D       6829  1987 EDU0101     AL   
 2 Autauga, AL 01001 EDU010188D       6900  1988 EDU0101     AL   
 3 Autauga, AL 01001 EDU010189D       6920  1989 EDU0101     AL   
 4 Autauga, AL 01001 EDU010190D       6847  1990 EDU0101     AL   
 5 Autauga, AL 01001 EDU010191D       7008  1991 EDU0101     AL   
 6 Autauga, AL 01001 EDU010192D       7137  1992 EDU0101     AL   
 7 Autauga, AL 01001 EDU010193D       7152  1993 EDU0101     AL   
 8 Autauga, AL 01001 EDU010194D       7381  1994 EDU0101     AL   
 9 Autauga, AL 01001 EDU010195D       7568  1995 EDU0101     AL   
10 Autauga, AL 01001 EDU010196D       7834  1996 EDU0101     AL   
# ℹ 62,890 more rows

$noncounty_data
# A tibble: 1,040 × 7
   area_name     STCOU item_id    enrollment  year survey_code division
   <chr>         <chr> <chr>           <dbl> <dbl> <chr>       <chr>   
 1 UNITED STATES 00000 EDU010187D   40024299  1987 EDU0101     ERROR   
 2 UNITED STATES 00000 EDU010188D   39967624  1988 EDU0101     ERROR   
 3 UNITED STATES 00000 EDU010189D   40317775  1989 EDU0101     ERROR   
 4 UNITED STATES 00000 EDU010190D   40737600  1990 EDU0101     ERROR   
 5 UNITED STATES 00000 EDU010191D   41385442  1991 EDU0101     ERROR   
 6 UNITED STATES 00000 EDU010192D   42088151  1992 EDU0101     ERROR   
 7 UNITED STATES 00000 EDU010193D   42724710  1993 EDU0101     ERROR   
 8 UNITED STATES 00000 EDU010194D   43369917  1994 EDU0101     ERROR   
 9 UNITED STATES 00000 EDU010195D   43993459  1995 EDU0101     ERROR   
10 UNITED STATES 00000 EDU010196D   44715737  1996 EDU0101     ERROR   
# ℹ 1,030 more rows
…
The goal of this section is to create two functions that will take in combined data sets (as a list) from our data combining function and create plots for county and non-county (state) data. Details of this functions will be provided in subsequent sections.

State Plotting Function

For the state plotting function, we want to create a function that will take in our combined census data sets and our default variable as arguments and outputs a plot of year versus the mean of of the default variable for each division. To accomplish this, we first need to do some manipulation with our tibble. First, we isolate the proper tibble from the list using [[]]. Since the United States is not a division and has “ERROR” in the division column, we need to filter to remove those rows. Finally we can group by year and division to so that the appropriate means are calculated. To calculate a mean for each year and division combination, we use summarize and reference our default variable name for the mean function.

Now that our data is in the proper form and summary statistics obtained, we can create our line plot. We use ggplot to create a plot instance. The plot instance needs two arguments, one specifying our data and an aesthetic (aes) mapping argument. The aes mapping defines the x and y axis variables, as well as mapping for division so the plot assigns a different color and line to each division. Next we add layers. Since we want a line connecting years for each division, we use geom_line. We chose to leave the defaults in place so no arguments are specified. A labs layer was then added to modify some labels. The x-axis and legend labels are capitalized and the title and axis label specified in a way that will allow the names to change dynamically according to the default variable name used when calling the function.

#view(combined_census_lists_EDU[[2]])
result <- combined_census_lists_EDU[[2]] |>
  filter(area_name != "UNITED STATES") |> 
  group_by(division, year)
result

# A tibble: 1,020 × 7
# Groups:   division, year [180]
   area_name STCOU item_id    enrollment  year survey_code division          
   <chr>     <chr> <chr>           <dbl> <dbl> <chr>       <chr>             
 1 ALABAMA   01000 EDU010187D     733735  1987 EDU0101     East South Central
 2 ALABAMA   01000 EDU010188D     728234  1988 EDU0101     East South Central
 3 ALABAMA   01000 EDU010189D     730048  1989 EDU0101     East South Central
 4 ALABAMA   01000 EDU010190D     728252  1990 EDU0101     East South Central
 5 ALABAMA   01000 EDU010191D     725541  1991 EDU0101     East South Central
 6 ALABAMA   01000 EDU010192D     726150  1992 EDU0101     East South Central
 7 ALABAMA   01000 EDU010193D     728014  1993 EDU0101     East South Central
 8 ALABAMA   01000 EDU010194D     730509  1994 EDU0101     East South Central
 9 ALABAMA   01000 EDU010195D     727989  1995 EDU0101     East South Central
10 ALABAMA   01000 EDU010196D     736825  1996 EDU0101     East South Central
# ℹ 1,010 more rows

check summarize and groupings

result <- combined_census_lists_EDU[[2]] |>
  filter(area_name != "UNITED STATES") |> 
  group_by(division, year) |>
  summarize(mean_enrollment = mean(enrollment))

`summarise()` has grouped output by 'division'. You can override using the
`.groups` argument.

result

# A tibble: 180 × 3
# Groups:   division [9]
   division            year mean_enrollment
   <chr>              <dbl>           <dbl>
 1 East North Central  1987        1395868.
 2 East North Central  1988        1400830.
 3 East North Central  1989        1352998.
 4 East North Central  1990        1384188.
 5 East North Central  1991        1393162.
 6 East North Central  1992        1414759.
 7 East North Central  1993        1416112.
 8 East North Central  1994        1425489 
 9 East North Central  1995        1438632 
10 East North Central  1996        1454695.
# ℹ 170 more rows
incorporate var_name in the mean call

state.plot <- function(df, var_name = "enrollment") {
  result <- df[[2]] |>
    filter(area_name != "UNITED STATES") |> 
    group_by(division, year) |> 
    summarize(mean(get(var_name)))
             return(result)
}
state.plot(combined_census_lists_EDU)

`summarise()` has grouped output by 'division'. You can override using the
`.groups` argument.

# A tibble: 180 × 3
# Groups:   division [9]
   division            year `mean(get(var_name))`
   <chr>              <dbl>                 <dbl>
 1 East North Central  1987              1395868.
 2 East North Central  1988              1400830.
 3 East North Central  1989              1352998.
 4 East North Central  1990              1384188.
 5 East North Central  1991              1393162.
 6 East North Central  1992              1414759.
 7 East North Central  1993              1416112.
 8 East North Central  1994              1425489 
 9 East North Central  1995              1438632 
10 East North Central  1996              1454695.
# ℹ 170 more rows
…
Rows: 3198 Columns: 42
── Column specification ────────────────────────────────────────────────────────
Delimiter: ","
chr (22): Area_name, STCOU, EDU010187N1, EDU010187N2, EDU010188N1, EDU010188...
dbl (20): EDU010187F, EDU010187D, EDU010188F, EDU010188D, EDU010189F, EDU010...

ℹ Use `spec()` to retrieve the full column specification for this data.
ℹ Specify the column types or set `show_col_types = FALSE` to quiet this message.

census_df_list_EDU01a

$county_data
# A tibble: 31,450 × 7
   area_name   STCOU item_id    enrollment  year survey_code state
   <chr>       <chr> <chr>           <dbl> <dbl> <chr>       <chr>
 1 Autauga, AL 01001 EDU010187D       6829  1987 EDU0101     AL   
 2 Autauga, AL 01001 EDU010188D       6900  1988 EDU0101     AL   
 3 Autauga, AL 01001 EDU010189D       6920  1989 EDU0101     AL   
 4 Autauga, AL 01001 EDU010190D       6847  1990 EDU0101     AL   
 5 Autauga, AL 01001 EDU010191D       7008  1991 EDU0101     AL   
 6 Autauga, AL 01001 EDU010192D       7137  1992 EDU0101     AL   
 7 Autauga, AL 01001 EDU010193D       7152  1993 EDU0101     AL   
 8 Autauga, AL 01001 EDU010194D       7381  1994 EDU0101     AL   
 9 Autauga, AL 01001 EDU010195D       7568  1995 EDU0101     AL   
10 Autauga, AL 01001 EDU010196D       7834  1996 EDU0101     AL   
# ℹ 31,440 more rows

$noncounty_data
# A tibble: 520 × 7
   area_name     STCOU item_id    enrollment  year survey_code division
   <chr>         <chr> <chr>           <dbl> <dbl> <chr>       <chr>   
 1 UNITED STATES 00000 EDU010187D   40024299  1987 EDU0101     ERROR   
 2 UNITED STATES 00000 EDU010188D   39967624  1988 EDU0101     ERROR   
 3 UNITED STATES 00000 EDU010189D   40317775  1989 EDU0101     ERROR   
 4 UNITED STATES 00000 EDU010190D   40737600  1990 EDU0101     ERROR   
 5 UNITED STATES 00000 EDU010191D   41385442  1991 EDU0101     ERROR   
 6 UNITED STATES 00000 EDU010192D   42088151  1992 EDU0101     ERROR   
 7 UNITED STATES 00000 EDU010193D   42724710  1993 EDU0101     ERROR   
 8 UNITED STATES 00000 EDU010194D   43369917  1994 EDU0101     ERROR   
 9 UNITED STATES 00000 EDU010195D   43993459  1995 EDU0101     ERROR   
10 UNITED STATES 00000 EDU010196D   44715737  1996 EDU0101     ERROR   
# ℹ 510 more rows
…
Rows: 3198 Columns: 42
── Column specification ────────────────────────────────────────────────────────
Delimiter: ","
chr (22): Area_name, STCOU, EDU010197N1, EDU010197N2, EDU010198N1, EDU010198...
dbl (20): EDU010197F, EDU010197D, EDU010198F, EDU010198D, EDU010199F, EDU010...

ℹ Use `spec()` to retrieve the full column specification for this data.
ℹ Specify the column types or set `show_col_types = FALSE` to quiet this message.

census_df_list_EDU01b

$county_data
# A tibble: 31,450 × 7
   area_name   STCOU item_id    enrollment  year survey_code state
   <chr>       <chr> <chr>           <dbl> <dbl> <chr>       <chr>
 1 Autauga, AL 01001 EDU010197D       8099  1997 EDU0101     AL   
 2 Autauga, AL 01001 EDU010198D       8211  1998 EDU0101     AL   
 3 Autauga, AL 01001 EDU010199D       8489  1999 EDU0101     AL   
 4 Autauga, AL 01001 EDU010200D       8912  2000 EDU0102     AL   
 5 Autauga, AL 01001 EDU010201D       8626  2001 EDU0102     AL   
 6 Autauga, AL 01001 EDU010202D       8762  2002 EDU0102     AL   
 7 Autauga, AL 01001 EDU015203D       9105  2003 EDU0152     AL   
 8 Autauga, AL 01001 EDU015204D       9200  2004 EDU0152     AL   
 9 Autauga, AL 01001 EDU015205D       9559  2005 EDU0152     AL   
10 Autauga, AL 01001 EDU015206D       9652  2006 EDU0152     AL   
# ℹ 31,440 more rows

$noncounty_data
# A tibble: 520 × 7
   area_name     STCOU item_id    enrollment  year survey_code division
   <chr>         <chr> <chr>           <dbl> <dbl> <chr>       <chr>   
 1 UNITED STATES 00000 EDU010197D   44534459  1997 EDU0101     ERROR   
 2 UNITED STATES 00000 EDU010198D   46245814  1998 EDU0101     ERROR   
 3 UNITED STATES 00000 EDU010199D   46368903  1999 EDU0101     ERROR   
 4 UNITED STATES 00000 EDU010200D   46818690  2000 EDU0102     ERROR   
 5 UNITED STATES 00000 EDU010201D   47127066  2001 EDU0102     ERROR   
 6 UNITED STATES 00000 EDU010202D   47606570  2002 EDU0102     ERROR   
 7 UNITED STATES 00000 EDU015203D   48506317  2003 EDU0152     ERROR   
 8 UNITED STATES 00000 EDU015204D   48693287  2004 EDU0152     ERROR   
 9 UNITED STATES 00000 EDU015205D   48978555  2005 EDU0152     ERROR   
10 UNITED STATES 00000 EDU015206D   49140702  2006 EDU0152     ERROR   
# ℹ 510 more rows

Data Combining Function Applied to EDU Data Sets

combined_census_lists_EDU <- 
  combine_census_lists(census_df_list_EDU01a, census_df_list_EDU01b)
combined_census_lists_EDU

$county_data
# A tibble: 62,900 × 7
   area_name   STCOU item_id    enrollment  year survey_code state
   <chr>       <chr> <chr>           <dbl> <dbl> <chr>       <chr>
 1 Autauga, AL 01001 EDU010187D       6829  1987 EDU0101     AL   
 2 Autauga, AL 01001 EDU010188D       6900  1988 EDU0101     AL   
 3 Autauga, AL 01001 EDU010189D       6920  1989 EDU0101     AL   
 4 Autauga, AL 01001 EDU010190D       6847  1990 EDU0101     AL   
 5 Autauga, AL 01001 EDU010191D       7008  1991 EDU0101     AL   
 6 Autauga, AL 01001 EDU010192D       7137  1992 EDU0101     AL   
 7 Autauga, AL 01001 EDU010193D       7152  1993 EDU0101     AL   
 8 Autauga, AL 01001 EDU010194D       7381  1994 EDU0101     AL   
 9 Autauga, AL 01001 EDU010195D       7568  1995 EDU0101     AL   
10 Autauga, AL 01001 EDU010196D       7834  1996 EDU0101     AL   
# ℹ 62,890 more rows

$noncounty_data
# A tibble: 1,040 × 7
   area_name     STCOU item_id    enrollment  year survey_code division
   <chr>         <chr> <chr>           <dbl> <dbl> <chr>       <chr>   
 1 UNITED STATES 00000 EDU010187D   40024299  1987 EDU0101     ERROR   
 2 UNITED STATES 00000 EDU010188D   39967624  1988 EDU0101     ERROR   
 3 UNITED STATES 00000 EDU010189D   40317775  1989 EDU0101     ERROR   
 4 UNITED STATES 00000 EDU010190D   40737600  1990 EDU0101     ERROR   
 5 UNITED STATES 00000 EDU010191D   41385442  1991 EDU0101     ERROR   
 6 UNITED STATES 00000 EDU010192D   42088151  1992 EDU0101     ERROR   
 7 UNITED STATES 00000 EDU010193D   42724710  1993 EDU0101     ERROR   
 8 UNITED STATES 00000 EDU010194D   43369917  1994 EDU0101     ERROR   
 9 UNITED STATES 00000 EDU010195D   43993459  1995 EDU0101     ERROR   
10 UNITED STATES 00000 EDU010196D   44715737  1996 EDU0101     ERROR   
# ℹ 1,030 more rows
…
